%YAML 1.1
%TAG !u! tag:unity3d.com,2011:
--- !u!114 &-6743032005255573659
MonoBehaviour:
  m_ObjectHideFlags: 11
  m_CorrespondingSourceObject: {fileID: 0}
  m_PrefabInstance: {fileID: 0}
  m_PrefabAsset: {fileID: 0}
  m_GameObject: {fileID: 0}
  m_Enabled: 1
  m_EditorHideFlags: 0
  m_Script: {fileID: 11500000, guid: d0353a89b1f911e48b9e16bdc9f2e058, type: 3}
  m_Name: 
  m_EditorClassIdentifier: 
  version: 5
--- !u!21 &2100000
Material:
  serializedVersion: 8
  m_ObjectHideFlags: 0
  m_CorrespondingSourceObject: {fileID: 0}
  m_PrefabInstance: {fileID: 0}
  m_PrefabAsset: {fileID: 0}
  m_Name: ETough
  m_Shader: {fileID: -6465566751694194690, guid: ff989739600d0544b9fd283c8ff770c2, type: 3}
  m_ValidKeywords: []
  m_InvalidKeywords: []
  m_LightmapFlags: 2
  m_EnableInstancingVariants: 0
  m_DoubleSidedGI: 0
  m_CustomRenderQueue: -1
  stringTagMap: {}
  disabledShaderPasses: []
  m_SavedProperties:
    serializedVersion: 3
    m_TexEnvs:
    - _SampleTexture2D_dee1c0c42ec249f3b1cc934dc61f7ff1_Texture_1:
        m_Texture: {fileID: 2800000, guid: 1428c13bc2562fc43b09717a20fd4761, type: 3}
        m_Scale: {x: 1, y: 1}
        m_Offset: {x: 0, y: 0}
    - unity_Lightmaps:
        m_Texture: {fileID: 0}
        m_Scale: {x: 1, y: 1}
        m_Offset: {x: 0, y: 0}
    - unity_LightmapsInd:
        m_Texture: {fileID: 0}
        m_Scale: {x: 1, y: 1}
        m_Offset: {x: 0, y: 0}
    - unity_ShadowMasks:
        m_Texture: {fileID: 0}
        m_Scale: {x: 1, y: 1}
        m_Offset: {x: 0, y: 0}
    m_Ints: []
    m_Floats:
    - _Hue_Offset: 0
    - _Intensity: 1
    - _QueueControl: 0
    - _QueueOffset: 0
    - _Saturation: 1
    - _Smoothness: 0.5
    m_Colors:
    - _Color: {r: 0.5156863, g: 1, b: 0.031372547, a: 0}
    - _Specular: {r: 1, g: 0, b: 0, a: 0}
    - _Tint: {r: 1, g: 0.6233039, b: 0.501, a: 0}
  m_BuildTextureStacks: []
