%YAML 1.1
%TAG !u! tag:unity3d.com,2011:
--- !u!21 &2100000
Material:
  serializedVersion: 8
  m_ObjectHideFlags: 0
  m_CorrespondingSourceObject: {fileID: 0}
  m_PrefabInstance: {fileID: 0}
  m_PrefabAsset: {fileID: 0}
  m_Name: Water Jet Mud
  m_Shader: {fileID: -6465566751694194690, guid: 66692a538612e1d42bb702185ff7b514, type: 3}
  m_ValidKeywords: []
  m_InvalidKeywords: []
  m_LightmapFlags: 4
  m_EnableInstancingVariants: 0
  m_DoubleSidedGI: 0
  m_CustomRenderQueue: -1
  stringTagMap: {}
  disabledShaderPasses: []
  m_SavedProperties:
    serializedVersion: 3
    m_TexEnvs:
    - unity_Lightmaps:
        m_Texture: {fileID: 0}
        m_Scale: {x: 1, y: 1}
        m_Offset: {x: 0, y: 0}
    - unity_LightmapsInd:
        m_Texture: {fileID: 0}
        m_Scale: {x: 1, y: 1}
        m_Offset: {x: 0, y: 0}
    - unity_ShadowMasks:
        m_Texture: {fileID: 0}
        m_Scale: {x: 1, y: 1}
        m_Offset: {x: 0, y: 0}
    m_Ints: []
    m_Floats:
    - _Height: 0.3
    - _MeshHeightHalve: 2.85
    - _Mesh_Height_Halve: 2.85
    - _Progress: 0
    - _QueueControl: 0
    - _QueueOffset: 0
    - _Ripple_Density: 10
    - _Ripple_Shift: 2
    - _Ripple_Thinness: 4
    - _TargetDistance: 20
    - _Target_Distance: 32.4
    - _Thickness: 1.5
    - _Wobble_Speed: 0.4
    - _Wobble_Strength: 1.5
    m_Colors:
    - _Ripple_Color: {r: 0.6, g: 0.37696335, b: 0.15078533, a: 0}
    - _Ripple_Scroll: {r: -1, g: 0, b: 0, a: 0}
    - _Target: {r: 2, g: 0, b: 0, a: 0}
    - _TargetPosition: {r: 0, g: 0, b: 20, a: 0}
    - _Target_Position: {r: 0, g: 0, b: 20, a: 0}
    - _Water_Color: {r: 0.03, g: 0.0046153846, b: 0, a: 0}
  m_BuildTextureStacks: []
--- !u!114 &8371267029525422091
MonoBehaviour:
  m_ObjectHideFlags: 11
  m_CorrespondingSourceObject: {fileID: 0}
  m_PrefabInstance: {fileID: 0}
  m_PrefabAsset: {fileID: 0}
  m_GameObject: {fileID: 0}
  m_Enabled: 1
  m_EditorHideFlags: 0
  m_Script: {fileID: 11500000, guid: d0353a89b1f911e48b9e16bdc9f2e058, type: 3}
  m_Name: 
  m_EditorClassIdentifier: 
  version: 5
